plotly
…
my_data = 
  ny_noaa %>%
  separate(date,into = c("year","month","day"),sep = "-",convert = TRUE) %>%
  mutate(
    tmax = as.numeric(tmax)/10,
    tmin = as.numeric(tmin)/10,
    snow = as.numeric(snow)*25.4,
    text_label = str_c("Snowfall: ", snow,"mm")) %>%
  drop_na() %>%
  filter(snow != 0,
         year >= 2008) %>%
  select(id, year,snow,tmax,tmin,text_label)
my_data

## # A tibble: 9,998 × 6
##    id           year  snow  tmax  tmin text_label        
##    <chr>       <int> <dbl> <dbl> <dbl> <chr>             
##  1 USC00300023  2008  635    1.1  -8.9 Snowfall: 635mm   
##  2 USC00300023  2008  635    1.1  -4.4 Snowfall: 635mm   
##  3 USC00300023  2008  330.  -4.4 -14.4 Snowfall: 330.2mm 
##  4 USC00300023  2008  635   -5   -10.6 Snowfall: 635mm   
##  5 USC00300023  2008  635    0.6  -3.3 Snowfall: 635mm   
##  6 USC00300023  2008  330.   1.1  -3.9 Snowfall: 330.2mm 
##  7 USC00300023  2008  965.   1.7  -4.4 Snowfall: 965.2mm 
##  8 USC00300023  2008  635   -3.3 -16.7 Snowfall: 635mm   
##  9 USC00300023  2008 1930.  -5   -18.3 Snowfall: 1930.4mm
## 10 USC00300023  2008  965.   0    -8.3 Snowfall: 965.2mm 
## # … with 9,988 more rows
…
